## Interface: 80000
## Title: Gio |cff00ffffFlyout|r
## Author: Gio
## Version: 1.0
## Notes: ilvl en el flyout del pj
## X-eMail: xergio@gmail.com

LibItemUpgradeInfo-1.0\LibItemUpgradeInfo-1.0.xml
main.lua
